<?xml version="1.0" encoding="UTF-8" standalone="no"?>
<svg
   xmlns:dc="http://purl.org/dc/elements/1.1/"
   xmlns:cc="http://creativecommons.org/ns#"
   xmlns:rdf="http://www.w3.org/1999/02/22-rdf-syntax-ns#"
   xmlns:svg="http://www.w3.org/2000/svg"
   xmlns="http://www.w3.org/2000/svg"
   xmlns:xlink="http://www.w3.org/1999/xlink"
   xmlns:sodipodi="http://sodipodi.sourceforge.net/DTD/sodipodi-0.dtd"
   xmlns:inkscape="http://www.inkscape.org/namespaces/inkscape"
   _ngcontent-serverApp-c10=""
   version="1.2"
   class="ng-tns-c10-166 ng-trigger ng-trigger-outOfBounds ng-star-inserted"
   width="401.25479"
   height="304.08499"
   viewBox="0 0 401.25479 304.08499"
   id="svg3929"
   sodipodi:docname="logo_backup_ink.svg"
   inkscape:version="0.92.4 (5da689c313, 2019-01-14)">
  <metadata
     id="metadata3935">
    <rdf:RDF>
      <cc:Work
         rdf:about="">
        <dc:format>image/svg+xml</dc:format>
        <dc:type
           rdf:resource="http://purl.org/dc/dcmitype/StillImage" />
        <dc:title></dc:title>
      </cc:Work>
    </rdf:RDF>
  </metadata>
  <defs
     id="defs3933">
    <linearGradient
       inkscape:collect="always"
       id="linearGradient6220">
      <stop
         style="stop-color:#e6e6e6;stop-opacity:1;"
         offset="0"
         id="stop6216" />
      <stop
         style="stop-color:#e6e6e6;stop-opacity:0;"
         offset="1"
         id="stop6218" />
    </linearGradient>
    <linearGradient
       inkscape:collect="always"
       xlink:href="#linearGradient6220"
       id="linearGradient6222"
       x1="384.90564"
       y1="295.75473"
       x2="9.1981134"
       y2="13.443397"
       gradientUnits="userSpaceOnUse"
       gradientTransform="matrix(1.0109332,0,0,0.97253762,-1.5592554,-2.7836611)" />
    <filter
       inkscape:collect="always"
       style="color-interpolation-filters:sRGB"
       id="filter9676"
       x="-0.036089089"
       width="1.0721782"
       y="-0.072178178"
       height="1.1443563">
      <feGaussianBlur
         inkscape:collect="always"
         stdDeviation="1.503712"
         id="feGaussianBlur9678" />
    </filter>
    <filter
       inkscape:collect="always"
       style="color-interpolation-filters:sRGB"
       id="filter9688"
       x="-0.036089089"
       width="1.0721782"
       y="-0.072178178"
       height="1.1443563">
      <feGaussianBlur
         inkscape:collect="always"
         stdDeviation="1.503712"
         id="feGaussianBlur9690" />
    </filter>
    <filter
       inkscape:collect="always"
       style="color-interpolation-filters:sRGB"
       id="filter9692"
       x="-0.036089089"
       width="1.0721782"
       y="-0.072178178"
       height="1.1443563">
      <feGaussianBlur
         inkscape:collect="always"
         stdDeviation="1.503712"
         id="feGaussianBlur9694" />
    </filter>
    <filter
       inkscape:collect="always"
       style="color-interpolation-filters:sRGB"
       id="filter9716"
       x="-0.10833489"
       width="1.2166698"
       y="-0.030668681"
       height="1.0613374">
      <feGaussianBlur
         inkscape:collect="always"
         stdDeviation="1.3800907"
         id="feGaussianBlur9718" />
    </filter>
    <filter
       inkscape:collect="always"
       style="color-interpolation-filters:sRGB"
       id="filter9740"
       x="-0.040359501"
       width="1.080719"
       y="-0.059418157"
       height="1.1188363">
      <feGaussianBlur
         inkscape:collect="always"
         stdDeviation="0.89127232"
         id="feGaussianBlur9742" />
    </filter>
    <filter
       inkscape:collect="always"
       style="color-interpolation-filters:sRGB"
       id="filter9760"
       x="-0.029811479"
       width="1.059623"
       y="-0.020037225"
       height="1.0400743">
      <feGaussianBlur
         inkscape:collect="always"
         stdDeviation="1.0185589"
         id="feGaussianBlur9762" />
    </filter>
    <filter
       inkscape:collect="always"
       style="color-interpolation-filters:sRGB"
       id="filter10872"
       x="-0.32570401"
       width="1.651408"
       y="-0.65140802"
       height="2.3028162">
      <feGaussianBlur
         inkscape:collect="always"
         stdDeviation="13.571001"
         id="feGaussianBlur10874" />
    </filter>
    <filter
       inkscape:collect="always"
       style="color-interpolation-filters:sRGB"
       id="filter10884"
       x="-0.55038899"
       width="2.1007781"
       y="-0.34654117"
       height="1.6930823">
      <feGaussianBlur
         inkscape:collect="always"
         stdDeviation="7.7971766"
         id="feGaussianBlur10886" />
    </filter>
    <filter
       inkscape:collect="always"
       style="color-interpolation-filters:sRGB"
       id="filter10896"
       x="-0.18631986"
       width="1.3726397"
       y="-0.9891367"
       height="2.9782734">
      <feGaussianBlur
         inkscape:collect="always"
         stdDeviation="9.0054592"
         id="feGaussianBlur10898" />
    </filter>
  </defs>
  <sodipodi:namedview
     pagecolor="#ffffff"
     bordercolor="#666666"
     borderopacity="1"
     objecttolerance="10"
     gridtolerance="10"
     guidetolerance="10"
     inkscape:pageopacity="0"
     inkscape:pageshadow="2"
     inkscape:window-width="1920"
     inkscape:window-height="1017"
     id="namedview3931"
     showgrid="false"
     inkscape:snap-page="false"
     inkscape:snap-grids="true"
     showguides="true"
     inkscape:zoom="0.99937758"
     inkscape:cx="33.871744"
     inkscape:cy="52.90806"
     inkscape:window-x="1912"
     inkscape:window-y="-8"
     inkscape:window-maximized="1"
     inkscape:current-layer="svg3929"
     units="px"
     fit-margin-top="0"
     fit-margin-left="0"
     fit-margin-right="0"
     fit-margin-bottom="0" />
  <rect
     _ngcontent-serverApp-c10=""
     class="ng-tns-c10-166"
     x="2.4382205"
     y="2.4382205"
     width="396.37836"
     height="299.20856"
     id="rect3825"
     style="fill:url(#linearGradient6222);fill-opacity:1;stroke:#000000;stroke-width:4.876441;stroke-miterlimit:4;stroke-dasharray:none;stroke-opacity:0.23115581" />
  <!---->
  <g
     _ngcontent-serverApp-c10=""
     app-link=""
     _nghost-serverApp-c12=""
     class="ng-tns-c12-176 ng-tns-c10-166 ng-star-inserted"
     id="g3835"
     transform="matrix(0.98960778,0,0,0.93814287,2.7058348,2.6919189)"
     style="filter:url(#filter9716)">
    <!---->
    <!---->
    <!---->
    <!---->
    <!---->
    <g
       _ngcontent-serverApp-c12=""
       class="ng-tns-c12-176 ng-star-inserted"
       transform="rotate(74.969569,-20.304994,113.93725)"
       id="g3833">
      <line
         _ngcontent-serverApp-c12=""
         class="ng-tns-c12-176 ng-trigger ng-trigger-distinguishLink"
         x1="0"
         y1="0"
         x2="111.82576"
         y2="0"
         id="line3827"
         style="stroke:#000000" />
      <line
         _ngcontent-serverApp-c12=""
         class="ng-tns-c12-176 ng-trigger ng-trigger-distinguishLink"
         x1="0"
         y1="0"
         x2="111.82576"
         y2="0"
         id="line3829"
         style="stroke:#000000;stroke-width:14;stroke-opacity:0.15" />
      <polygon
         _ngcontent-serverApp-c12=""
         class="ng-tns-c12-176 ng-trigger ng-trigger-distinguishLink"
         points="91.825757,7 91.825757,-7 109.82576,0 "
         id="polygon3831"
         style="fill:#000000;stroke:#000000" />
    </g>
    <!---->
  </g>
  <g
     _ngcontent-serverApp-c10=""
     app-link=""
     _nghost-serverApp-c12=""
     class="ng-tns-c12-177 ng-tns-c10-166 ng-star-inserted"
     id="g3845"
     transform="matrix(0.98960778,0,0,0.93814287,2.7058348,4.6369889)"
     style="filter:url(#filter9760)">
    <!---->
    <!---->
    <!---->
    <!---->
    <!---->
    <g
       _ngcontent-serverApp-c12=""
       class="ng-tns-c12-177 ng-star-inserted"
       transform="rotate(56.093723,-1.6423414,175.58404)"
       id="g3843">
      <line
         _ngcontent-serverApp-c12=""
         class="ng-tns-c12-177 ng-trigger ng-trigger-distinguishLink"
         x1="0"
         y1="0"
         x2="146.9966"
         y2="0"
         id="line3837"
         style="stroke:#000000" />
      <line
         _ngcontent-serverApp-c12=""
         class="ng-tns-c12-177 ng-trigger ng-trigger-distinguishLink"
         x1="0"
         y1="0"
         x2="146.9966"
         y2="0"
         id="line3839"
         style="stroke:#000000;stroke-width:14;stroke-opacity:0.15" />
      <polygon
         _ngcontent-serverApp-c12=""
         class="ng-tns-c12-177 ng-trigger ng-trigger-distinguishLink"
         points="126.9966,-7 144.9966,0 126.9966,7 "
         id="polygon3841"
         style="fill:#000000;stroke:#000000" />
    </g>
    <!---->
  </g>
  <g
     _ngcontent-serverApp-c10=""
     app-link=""
     _nghost-serverApp-c12=""
     class="ng-tns-c12-178 ng-tns-c10-166 ng-star-inserted"
     id="g3855"
     transform="matrix(0.98960778,0,0,0.93814287,2.7058348,2.6919189)"
     style="filter:url(#filter10896)">
    <!---->
    <!---->
    <!---->
    <!---->
    <!---->
    <g
       _ngcontent-serverApp-c12=""
       class="ng-tns-c12-178 ng-star-inserted"
       transform="rotate(8.8203796,-439.65754,979.53599)"
       id="g3853">
      <line
         _ngcontent-serverApp-c12=""
         class="ng-tns-c12-178 ng-trigger ng-trigger-distinguishLink"
         x1="0"
         y1="0"
         x2="117.38824"
         y2="0"
         id="line3847"
         style="stroke:#000000" />
      <line
         _ngcontent-serverApp-c12=""
         class="ng-tns-c12-178 ng-trigger ng-trigger-distinguishLink"
         x1="0"
         y1="0"
         x2="117.38824"
         y2="0"
         id="line3849"
         style="stroke:#000000;stroke-width:14;stroke-opacity:0.15" />
      <polygon
         _ngcontent-serverApp-c12=""
         class="ng-tns-c12-178 ng-trigger ng-trigger-distinguishLink"
         points="97.388245,7 97.388245,-7 115.38824,0 "
         id="polygon3851"
         style="fill:#000000;stroke:#000000" />
    </g>
    <!---->
  </g>
  <g
     _ngcontent-serverApp-c10=""
     app-link=""
     _nghost-serverApp-c12=""
     class="ng-tns-c12-179 ng-tns-c10-166 ng-star-inserted"
     id="g3865"
     transform="matrix(0.98960778,0,0,0.93814287,2.7058348,2.6919189)"
     style="filter:url(#filter10884)">
    <!---->
    <!---->
    <!---->
    <!---->
    <!---->
    <g
       _ngcontent-serverApp-c12=""
       class="ng-tns-c12-179 ng-star-inserted"
       transform="rotate(122.19573,121.82323,146.84817)"
       id="g3863">
      <line
         _ngcontent-serverApp-c12=""
         class="ng-tns-c12-179 ng-trigger ng-trigger-distinguishLink"
         x1="0"
         y1="0"
         x2="63.812225"
         y2="0"
         id="line3857"
         style="stroke:#000000" />
      <line
         _ngcontent-serverApp-c12=""
         class="ng-tns-c12-179 ng-trigger ng-trigger-distinguishLink"
         x1="0"
         y1="0"
         x2="63.812225"
         y2="0"
         id="line3859"
         style="stroke:#000000;stroke-width:14;stroke-opacity:0.15" />
      <polygon
         _ngcontent-serverApp-c12=""
         class="ng-tns-c12-179 ng-trigger ng-trigger-distinguishLink"
         points="43.812225,7 43.812225,-7 61.812225,0 "
         id="polygon3861"
         style="fill:#000000;stroke:#000000" />
    </g>
    <!---->
  </g>
  <g
     _ngcontent-serverApp-c10=""
     app-link=""
     _nghost-serverApp-c12=""
     class="ng-tns-c12-180 ng-tns-c10-166 ng-star-inserted"
     id="g3875"
     transform="matrix(0.98960778,0,0,0.93814287,2.7058348,2.6919189)"
     style="filter:url(#filter9740)">
    <!---->
    <!---->
    <!---->
    <!---->
    <!---->
    <g
       _ngcontent-serverApp-c12=""
       class="ng-tns-c12-180 ng-star-inserted"
       transform="rotate(145.81388,82.595485,135.40211)"
       id="g3873">
      <line
         _ngcontent-serverApp-c12=""
         class="ng-tns-c12-180 ng-trigger ng-trigger-distinguishLink"
         x1="0"
         y1="0"
         x2="64.070274"
         y2="0"
         id="line3867"
         style="stroke:#000000" />
      <line
         _ngcontent-serverApp-c12=""
         class="ng-tns-c12-180 ng-trigger ng-trigger-distinguishLink"
         x1="0"
         y1="0"
         x2="64.070274"
         y2="0"
         id="line3869"
         style="stroke:#000000;stroke-width:14;stroke-opacity:0.15" />
      <polygon
         _ngcontent-serverApp-c12=""
         class="ng-tns-c12-180 ng-trigger ng-trigger-distinguishLink"
         points="44.070274,7 44.070274,-7 62.070274,0 "
         id="polygon3871"
         style="fill:#000000;stroke:#000000" />
    </g>
    <!---->
  </g>
  <!---->
  <g
     _ngcontent-serverApp-c10=""
     app-rect-text=""
     class="app-rect-text ng-tns-c13-172 ng-tns-c10-166 ng-star-inserted"
     _nghost-serverApp-c13=""
     id="g3887"
     transform="matrix(0.98960778,0,0,0.93814287,2.7058348,2.6919189)"
     style="filter:url(#filter9692)">
    <g
       _ngcontent-serverApp-c13=""
       class="ng-tns-c13-172"
       transform="translate(45,54)"
       id="g3885">
      <rect
         _ngcontent-serverApp-c13=""
         class="ng-tns-c13-172 ng-trigger ng-trigger-distinguishShape"
         x="0"
         y="0"
         width="100"
         height="50"
         style="fill:#ffffff;stroke:#000000;stroke-width:1"
         id="rect3877" />
      <g
         _ngcontent-serverApp-c13=""
         class="ng-tns-c13-172"
         app-multiline-text=""
         padding="5"
         x="0"
         y="0"
         _nghost-serverApp-c14=""
         id="g3883">
        <text
           _ngcontent-serverApp-c14=""
           x="5"
           y="5"
           id="text3881">
          <!---->
          <tspan
             _ngcontent-serverApp-c14=""
             x="5"
             dy="21"
             class="ng-star-inserted"
             id="tspan3879">asdf asdf as</tspan>
        </text>
      </g>
      <!---->
      <!---->
      <!---->
      <!---->
    </g>
  </g>
  <g
     _ngcontent-serverApp-c10=""
     app-rect-text=""
     class="app-rect-text ng-tns-c13-173 ng-tns-c10-166 ng-star-inserted"
     _nghost-serverApp-c13=""
     id="g3901"
     transform="matrix(0.98960778,0,0,0.93814287,2.7058348,2.6919189)"
     style="filter:url(#filter10872)">
    <g
       _ngcontent-serverApp-c13=""
       class="ng-tns-c13-173"
       transform="translate(261,72)"
       id="g3899">
      <rect
         _ngcontent-serverApp-c13=""
         class="ng-tns-c13-173 ng-trigger ng-trigger-distinguishShape"
         x="0"
         y="0"
         width="100"
         height="50"
         style="fill:#ffff00;stroke:#ffa500;stroke-width:2"
         id="rect3889" />
      <g
         _ngcontent-serverApp-c13=""
         class="ng-tns-c13-173"
         app-multiline-text=""
         padding="5"
         x="0"
         y="0"
         _nghost-serverApp-c14=""
         id="g3897">
        <text
           _ngcontent-serverApp-c14=""
           x="5"
           y="5"
           id="text3895">
          <!---->
          <tspan
             _ngcontent-serverApp-c14=""
             x="5"
             dy="21"
             class="ng-star-inserted"
             id="tspan3891">qwer qwer</tspan>
          <tspan
             _ngcontent-serverApp-c14=""
             x="5"
             dy="21"
             class="ng-star-inserted"
             id="tspan3893">qw</tspan>
        </text>
      </g>
      <!---->
      <!---->
      <!---->
      <!---->
    </g>
  </g>
  <g
     _ngcontent-serverApp-c10=""
     app-rect-text=""
     class="app-rect-text ng-tns-c13-174 ng-tns-c10-166 ng-star-inserted"
     _nghost-serverApp-c13=""
     id="g3915"
     transform="matrix(0.98960778,0,0,0.93814287,2.7058348,2.6919189)"
     style="filter:url(#filter9688)">
    <g
       _ngcontent-serverApp-c13=""
       class="ng-tns-c13-174"
       transform="translate(74,212)"
       id="g3913">
      <rect
         _ngcontent-serverApp-c13=""
         class="ng-tns-c13-174 ng-trigger ng-trigger-distinguishShape"
         x="0"
         y="0"
         width="100"
         height="50"
         id="rect3903"
         style="fill:#ffffff;stroke:#000000;stroke-width:1" />
      <g
         _ngcontent-serverApp-c13=""
         class="ng-tns-c13-174"
         app-multiline-text=""
         padding="5"
         x="0"
         y="0"
         _nghost-serverApp-c14=""
         id="g3911">
        <text
           _ngcontent-serverApp-c14=""
           x="5"
           y="5"
           id="text3909">
          <!---->
          <tspan
             _ngcontent-serverApp-c14=""
             x="5"
             dy="21"
             class="ng-star-inserted"
             id="tspan3905">cvbn cvbn</tspan>
          <tspan
             _ngcontent-serverApp-c14=""
             x="5"
             dy="21"
             class="ng-star-inserted"
             id="tspan3907">cv</tspan>
        </text>
      </g>
      <!---->
      <!---->
      <!---->
      <!---->
    </g>
  </g>
  <g
     _ngcontent-serverApp-c10=""
     app-rect-text=""
     class="app-rect-text ng-tns-c13-175 ng-tns-c10-166 ng-star-inserted"
     _nghost-serverApp-c13=""
     id="g3927"
     transform="matrix(0.98960778,0,0,0.93814287,2.7058348,2.6919189)"
     style="filter:url(#filter9676)">
    <g
       _ngcontent-serverApp-c13=""
       class="ng-tns-c13-175"
       transform="translate(227,176)"
       id="g3925">
      <rect
         _ngcontent-serverApp-c13=""
         class="ng-tns-c13-175 ng-trigger ng-trigger-distinguishShape"
         x="0"
         y="0"
         width="100"
         height="50"
         id="rect3917"
         style="fill:#ffffff;stroke:#000000;stroke-width:1" />
      <g
         _ngcontent-serverApp-c13=""
         class="ng-tns-c13-175"
         app-multiline-text=""
         padding="5"
         x="0"
         y="0"
         _nghost-serverApp-c14=""
         id="g3923">
        <text
           _ngcontent-serverApp-c14=""
           x="5"
           y="5"
           id="text3921">
          <!---->
          <tspan
             _ngcontent-serverApp-c14=""
             x="5"
             dy="21"
             class="ng-star-inserted"
             id="tspan3919">tyui tyui ty</tspan>
        </text>
      </g>
      <!---->
      <!---->
      <!---->
      <!---->
    </g>
  </g>
</svg>
